{
  "RunType": "HTTP",
  "Labels": "kungfoo-project.com/mirtha , tufmanjaro",
  "StartTime": "2020-11-24T11:47:53.935689651-03:00",
  "RequestedQPS": "100",
  "RequestedDuration": "10s",
  "ActualQPS": 50.48542771493504,
  "ActualDuration": 10200963393,
  "NumThreads": 10,
  "Version": "1.9.1",
  "DurationHistogram": {
    "Count": 515,
    "Min": 0.186322825,
    "Max": 0.308612132,
    "Sum": 101.33270270199999,
    "Avg": 0.19676252951844658,
    "StdDev": 0.006340281718622779,
    "Data": [
      {
        "Start": 0.186322825,
        "End": 0.2,
        "Percent": 84.85436893203884,
        "Count": 437
      },
      {
        "Start": 0.2,
        "End": 0.25,
        "Percent": 99.80582524271844,
        "Count": 77
      },
      {
        "Start": 0.3,
        "End": 0.308612132,
        "Percent": 100,
        "Count": 1
      }
    ],
    "Percentiles": [
      {
        "Percentile": 50,
        "Value": 0.19436914469610092
      },
      {
        "Percentile": 75,
        "Value": 0.19840798937786697
      },
      {
        "Percentile": 90,
        "Value": 0.2172077922077922
      },
      {
        "Percentile": 99,
        "Value": 0.2473051948051948
      },
      {
        "Percentile": 99.9,
        "Value": 0.30417688402000037
      }
    ]
  },
  "Exactly": 0,
  "Jitter": false,
  "RetCodes": {
    "200": 515
  },
  "Sizes": {
    "Count": 515,
    "Min": 203,
    "Max": 203,
    "Sum": 104545,
    "Avg": 203,
    "StdDev": 0,
    "Data": [
      {
        "Start": 203,
        "End": 203,
        "Percent": 100,
        "Count": 515
      }
    ],
    "Percentiles": null
  },
  "HeaderSizes": {
    "Count": 515,
    "Min": 171,
    "Max": 171,
    "Sum": 88065,
    "Avg": 171,
    "StdDev": 0,
    "Data": [
      {
        "Start": 171,
        "End": 171,
        "Percent": 100,
        "Count": 515
      }
    ],
    "Percentiles": null
  },
  "URL": "http://kungfoo-project.com/mirtha",
  "SocketCount": 10,
  "AbortOn": 0
}
